^C:\USERS\LC\SOURCE\REPOS\HELLOSOCKET\HELLOSOCKET\TESTCPP.CPP
C:\USERS\LC\SOURCE\REPOS\BINTEMP\WIN32\HELLOSOCKET\DEBUG\VC141.PDB
C:\USERS\LC\SOURCE\REPOS\BINTEMP\WIN32\HELLOSOCKET\DEBUG\VC141.IDB
C:\USERS\LC\SOURCE\REPOS\BINTEMP\WIN32\HELLOSOCKET\DEBUG\TESTCPP.OBJ
