^C:\USERS\LC\SOURCE\REPOS\CONSOLEAPPLICATION2\CONSOLEAPPLICATION2\PCH.CPP
C:\USERS\LC\SOURCE\REPOS\CONSOLEAPPLICATION2\CONSOLEAPPLICATION2\X64\RELEASE\CONSOLEAPPLICATION2.PCH
C:\USERS\LC\SOURCE\REPOS\CONSOLEAPPLICATION2\CONSOLEAPPLICATION2\X64\RELEASE\VC141.PDB
C:\USERS\LC\SOURCE\REPOS\CONSOLEAPPLICATION2\CONSOLEAPPLICATION2\X64\RELEASE\PCH.OBJ
^C:\USERS\LC\SOURCE\REPOS\CONSOLEAPPLICATION2\CONSOLEAPPLICATION2\CONSOLEAPPLICATION2.CPP
C:\USERS\LC\SOURCE\REPOS\CONSOLEAPPLICATION2\CONSOLEAPPLICATION2\X64\RELEASE\VC141.PDB
C:\USERS\LC\SOURCE\REPOS\CONSOLEAPPLICATION2\CONSOLEAPPLICATION2\X64\RELEASE\CONSOLEAPPLICATION2.OBJ
